{
  "pages": [
    {
      "path": "/",
      "name": "首頁",
      "meta": {
        "title": "首頁"
      },
      "modules": [
        {
          "id": 0,
          "name": "Header",
          "template": 1
        },
        {
          "id": 1,
          "name": "Carousel",
          "template": 2
        },
       
        {
          "id": 2,
          "name": "About",
          "template": 2
        },
       
        {
          "id": 3,
          "name": "Rewards",
          "template": 2
        },
        {
          "id": 4,
          "name": "Information",
          "template": 2
        },
        {
          "id": 5,
          "name": "Scenes",
          "template": 2
        },
        {
          "id": 6,
          "name": "Download",
          "template": 1
        },
        {
          "id": 7,
          "name": "Recommend",
          "template": 2
        },


        {
          "id": 20,
          "name": "Footer",
          "template": 2
        }
      ]
    }
  ]
}
