<?xml version="1.0" encoding="utf-8"?>
<!-- Generator: Adobe Illustrator 25.0.1, SVG Export Plug-In . SVG Version: 6.00 Build 0)  -->
<svg version="1.1" id="圖層_1" xmlns="http://www.w3.org/2000/svg" xmlns:xlink="http://www.w3.org/1999/xlink" x="0px" y="0px"
	 viewBox="0 0 546.9 419" style="enable-background:new 0 0 546.9 419;" xml:space="preserve">
<path d="M467.5,255.8L514.4,96H132.7l46.9,159.8H467.5z M405.7,303.2c16,0,30.5,6.5,41,17c10.5,10.5,17,25,17,41s-6.5,30.5-17,41
	c-10.5,10.5-25,17-41,17s-30.5-6.5-41-17c-10.5-10.5-17-25-17-41s6.5-30.5,17-41C375.3,309.7,389.7,303.2,405.7,303.2z M427,339.9
	c-5.4-5.4-12.9-8.8-21.2-8.8s-15.8,3.4-21.2,8.8c-5.4,5.4-8.8,12.9-8.8,21.2c0,8.3,3.4,15.8,8.8,21.2c5.4,5.4,12.9,8.8,21.2,8.8
	s15.8-3.4,21.2-8.8c5.4-5.4,8.8-12.9,8.8-21.2S432.4,345.3,427,339.9z M241.3,303.2c16,0,30.5,6.5,41,17c10.5,10.5,17,25,17,41
	s-6.5,30.5-17,41c-10.5,10.5-25,17-41,17s-30.5-6.5-41-17c-10.5-10.5-17-25-17-41s6.5-30.5,17-41
	C210.9,309.7,225.3,303.2,241.3,303.2z M262.5,339.9c-5.4-5.4-12.9-8.8-21.2-8.8s-15.8,3.4-21.2,8.8c-5.4,5.4-8.8,12.9-8.8,21.2
	c0,8.3,3.4,15.8,8.8,21.2c5.4,5.4,12.9,8.8,21.2,8.8s15.8-3.4,21.2-8.8c5.4-5.4,8.8-12.9,8.8-21.2S268,345.3,262.5,339.9z M100.4,85
	l-16.8-57H14c-7.7,0-14-6.2-14-14S6.2,0,14,0h80.1v0c6,0,11.6,3.9,13.4,10l17,58H533v0c1.3,0,2.6,0.2,3.9,0.6
	c7.4,2.2,11.6,9.9,9.4,17.3l-54.8,186.8c-1.4,6.3-6.9,11-13.6,11H169.2v0c-6,0-11.6-3.9-13.4-10L101,86.9
	C100.8,86.3,100.6,85.6,100.4,85L100.4,85z"/>
</svg>
