<?xml version="1.0" encoding="utf-8"?>
<!-- Generator: Adobe Illustrator 25.0.1, SVG Export Plug-In . SVG Version: 6.00 Build 0)  -->
<svg version="1.1" id="圖層_1" xmlns="http://www.w3.org/2000/svg" xmlns:xlink="http://www.w3.org/1999/xlink" x="0px" y="0px"
	 viewBox="0 0 315 315" style="enable-background:new 0 0 315 315;" xml:space="preserve">
<style type="text/css">
	.st0{fill-rule:evenodd;clip-rule:evenodd;}
</style>
<path class="st0" d="M5.1,5.1C12-1.7,23-1.7,29.9,5.1l127.6,127.6L285.1,5.1c6.8-6.8,17.9-6.8,24.8,0c6.8,6.8,6.8,17.9,0,24.7
	L182.2,157.5l127.6,127.6c6.8,6.8,6.8,17.9,0,24.8c-6.8,6.8-17.9,6.8-24.8,0L157.5,182.2L29.9,309.9c-6.8,6.8-17.9,6.8-24.8,0
	c-6.8-6.8-6.8-17.9,0-24.8l127.6-127.6L5.1,29.9C-1.7,23-1.7,12,5.1,5.1z"/>
</svg>
