<?xml version="1.0" encoding="utf-8"?>
<!-- Generator: Adobe Illustrator 25.0.1, SVG Export Plug-In . SVG Version: 6.00 Build 0)  -->
<svg version="1.1" id="圖層_1" xmlns="http://www.w3.org/2000/svg" xmlns:xlink="http://www.w3.org/1999/xlink" x="0px" y="0px"
	 viewBox="0 0 313.6 313.6" style="enable-background:new 0 0 313.6 313.6;" xml:space="preserve">
<path d="M134.4,313.6V179.2H0v-44.8h134.4V0h44.8v134.4h134.4v44.8H179.2v134.4H134.4z"/>
</svg>
